#Title_job : 
#Sequence_header : 
#Database_queried : OM-RGC_v1
#Tool_used : hmmer
#Threshold : 9.1e-81
#Normalization : pertotal
#Number_of_genes_hits : 71
#Number_of_abundance_values : 520
#query_id	subject_id	pct_identity	aln_length	n_of_mismatches	gap_openings	q_start	q_end	s_start	s_end	e_value	bit_score
nifH_aa_align	OM-RGC.v1.007601814	-	-	-	-	-	-	-	-	3.9e-153	519.8
nifH_aa_align	OM-RGC.v1.007647800	-	-	-	-	-	-	-	-	4e-153	519.8
nifH_aa_align	OM-RGC.v1.007483613	-	-	-	-	-	-	-	-	1.4e-152	518.0
nifH_aa_align	OM-RGC.v1.007595848	-	-	-	-	-	-	-	-	5.6e-152	516.1
nifH_aa_align	OM-RGC.v1.007667460	-	-	-	-	-	-	-	-	9.2e-152	515.3
nifH_aa_align	OM-RGC.v1.007624848	-	-	-	-	-	-	-	-	9.6e-152	515.3
nifH_aa_align	OM-RGC.v1.007376093	-	-	-	-	-	-	-	-	5.5e-151	512.8
nifH_aa_align	OM-RGC.v1.007316488	-	-	-	-	-	-	-	-	8.1e-151	512.2
nifH_aa_align	OM-RGC.v1.007690770	-	-	-	-	-	-	-	-	9.1e-151	512.1
nifH_aa_align	OM-RGC.v1.007499478	-	-	-	-	-	-	-	-	1.1e-150	511.8
nifH_aa_align	OM-RGC.v1.007562922	-	-	-	-	-	-	-	-	1.1e-150	511.8
nifH_aa_align	OM-RGC.v1.007436991	-	-	-	-	-	-	-	-	1.1e-150	511.8
nifH_aa_align	OM-RGC.v1.007818978	-	-	-	-	-	-	-	-	1.2e-150	511.7
nifH_aa_align	OM-RGC.v1.007439650	-	-	-	-	-	-	-	-	1.5e-150	511.4
nifH_aa_align	OM-RGC.v1.007388266	-	-	-	-	-	-	-	-	4.1e-150	509.9
nifH_aa_align	OM-RGC.v1.007561703	-	-	-	-	-	-	-	-	4.4e-150	509.8
nifH_aa_align	OM-RGC.v1.008079517	-	-	-	-	-	-	-	-	5.6e-150	509.5
nifH_aa_align	OM-RGC.v1.007199332	-	-	-	-	-	-	-	-	7.4e-150	509.1
nifH_aa_align	OM-RGC.v1.007627543	-	-	-	-	-	-	-	-	3.3e-149	506.9
nifH_aa_align	OM-RGC.v1.007501166	-	-	-	-	-	-	-	-	6.1e-149	506.1
nifH_aa_align	OM-RGC.v1.007258973	-	-	-	-	-	-	-	-	8.3e-148	502.4
nifH_aa_align	OM-RGC.v1.007377081	-	-	-	-	-	-	-	-	2e-147	501.1
nifH_aa_align	OM-RGC.v1.007316555	-	-	-	-	-	-	-	-	4.9e-147	499.8
nifH_aa_align	OM-RGC.v1.008689025	-	-	-	-	-	-	-	-	5.1e-146	496.5
nifH_aa_align	OM-RGC.v1.005707407	-	-	-	-	-	-	-	-	2.1e-145	494.5
nifH_aa_align	OM-RGC.v1.008689136	-	-	-	-	-	-	-	-	3.6e-145	493.7
nifH_aa_align	OM-RGC.v1.007083962	-	-	-	-	-	-	-	-	2.2e-144	491.1
nifH_aa_align	OM-RGC.v1.008903138	-	-	-	-	-	-	-	-	3.5e-144	490.5
nifH_aa_align	OM-RGC.v1.007828191	-	-	-	-	-	-	-	-	1.6e-143	488.3
nifH_aa_align	OM-RGC.v1.008761976	-	-	-	-	-	-	-	-	2.1e-143	487.9
nifH_aa_align	OM-RGC.v1.008760951	-	-	-	-	-	-	-	-	2.2e-143	487.9
nifH_aa_align	OM-RGC.v1.008691077	-	-	-	-	-	-	-	-	9.7e-143	485.7
nifH_aa_align	OM-RGC.v1.008760990	-	-	-	-	-	-	-	-	1.4e-142	485.2
nifH_aa_align	OM-RGC.v1.008761881	-	-	-	-	-	-	-	-	2.7e-142	484.3
nifH_aa_align	OM-RGC.v1.008900805	-	-	-	-	-	-	-	-	4.1e-142	483.7
nifH_aa_align	OM-RGC.v1.008734443	-	-	-	-	-	-	-	-	4.2e-142	483.6
nifH_aa_align	OM-RGC.v1.008759711	-	-	-	-	-	-	-	-	5e-142	483.4
nifH_aa_align	OM-RGC.v1.008759734	-	-	-	-	-	-	-	-	7.2e-142	482.9
nifH_aa_align	OM-RGC.v1.008618828	-	-	-	-	-	-	-	-	8.2e-142	482.7
nifH_aa_align	OM-RGC.v1.008529501	-	-	-	-	-	-	-	-	1.1e-141	482.2
nifH_aa_align	OM-RGC.v1.008759637	-	-	-	-	-	-	-	-	1.9e-141	481.5
nifH_aa_align	OM-RGC.v1.008830161	-	-	-	-	-	-	-	-	2.8e-141	480.9
nifH_aa_align	OM-RGC.v1.008620965	-	-	-	-	-	-	-	-	3.3e-141	480.7
nifH_aa_align	OM-RGC.v1.006585135	-	-	-	-	-	-	-	-	1.1e-140	479.0
nifH_aa_align	OM-RGC.v1.007482987	-	-	-	-	-	-	-	-	2.1e-140	478.1
nifH_aa_align	OM-RGC.v1.006859767	-	-	-	-	-	-	-	-	3.4e-140	477.4
nifH_aa_align	OM-RGC.v1.008618817	-	-	-	-	-	-	-	-	1.5e-139	475.2
nifH_aa_align	OM-RGC.v1.008691244	-	-	-	-	-	-	-	-	2.6e-139	474.5
nifH_aa_align	OM-RGC.v1.008760097	-	-	-	-	-	-	-	-	4.1e-139	473.8
nifH_aa_align	OM-RGC.v1.008691326	-	-	-	-	-	-	-	-	1.5e-138	472.0
nifH_aa_align	OM-RGC.v1.008760248	-	-	-	-	-	-	-	-	2.6e-138	471.2
nifH_aa_align	OM-RGC.v1.008416348	-	-	-	-	-	-	-	-	6.3e-137	466.7
nifH_aa_align	OM-RGC.v1.008691576	-	-	-	-	-	-	-	-	1.2e-136	465.7
nifH_aa_align	OM-RGC.v1.008689116	-	-	-	-	-	-	-	-	2e-136	465.0
nifH_aa_align	OM-RGC.v1.008689189	-	-	-	-	-	-	-	-	4.8e-136	463.8
nifH_aa_align	OM-RGC.v1.008689029	-	-	-	-	-	-	-	-	6.2e-136	463.4
nifH_aa_align	OM-RGC.v1.008691369	-	-	-	-	-	-	-	-	2.2e-135	461.6
nifH_aa_align	OM-RGC.v1.008830869	-	-	-	-	-	-	-	-	9.7e-135	459.5
nifH_aa_align	OM-RGC.v1.008691196	-	-	-	-	-	-	-	-	1.6e-134	458.8
nifH_aa_align	OM-RGC.v1.008761876	-	-	-	-	-	-	-	-	1.6e-134	458.7
nifH_aa_align	OM-RGC.v1.008830915	-	-	-	-	-	-	-	-	2.5e-134	458.1
nifH_aa_align	OM-RGC.v1.009841511	-	-	-	-	-	-	-	-	1.3e-128	439.3
nifH_aa_align	OM-RGC.v1.011403932	-	-	-	-	-	-	-	-	1.8e-118	406.1
nifH_aa_align	OM-RGC.v1.007563892	-	-	-	-	-	-	-	-	3.2e-114	392.2
nifH_aa_align	OM-RGC.v1.005665749	-	-	-	-	-	-	-	-	1.1e-99	344.5
nifH_aa_align	OM-RGC.v1.010783537	-	-	-	-	-	-	-	-	1.7e-99	343.8
nifH_aa_align	OM-RGC.v1.010517801	-	-	-	-	-	-	-	-	3.4e-97	336.3
nifH_aa_align	OM-RGC.v1.000507683	-	-	-	-	-	-	-	-	5.7e-89	309.3
nifH_aa_align	OM-RGC.v1.000473890	-	-	-	-	-	-	-	-	5.3e-88	306.1
nifH_aa_align	OM-RGC.v1.023801431	-	-	-	-	-	-	-	-	6e-84	292.8
nifH_aa_align	OM-RGC.v1.011231814	-	-	-	-	-	-	-	-	8.4e-83	289.1
